Introducción R, manipulación y visualización en R
…
mutate(): crear nuevas columnas usando la información de otras columnas.

group_by() y summarize(): cálcula estadísticas en datos agrupados.

arrange(): ordena resultados.

count(): conteo de datos.

2.1 Seleccionar columnas y filtrar filas

Para seleccionar columnas de una tabla de datos o data frame, vamos a usar la función select(). Luego, para seleccionar filas de acuerdo a cierto criterio (filtrar), vamos a usar la función filter().

select(data, sample_ID, geo_loc_name, species, observed) # los argumentos son, primero el objeto que contiene el data frame, y luego los títulos de las columnas a extraer

## # A tibble: 87 x 4
##    sample_ID  geo_loc_name           species                observed
##    <chr>      <chr>                  <chr>                     <dbl>
##  1 SRR6442697 Estrecho de Magallanes Megaptera novaeangliae       31
##  2 SRR6442698 Estrecho de Magallanes Megaptera novaeangliae       33
##  3 SRR6442699 Estrecho de Magallanes Megaptera novaeangliae       43
##  4 SRR6442700 Estrecho de Magallanes Megaptera novaeangliae       29
##  5 SRR6442701 Estrecho de Magallanes Megaptera novaeangliae       26
##  6 SRR6442702 Estrecho de Magallanes Megaptera novaeangliae       21
##  7 SRR6442703 Estrecho de Magallanes Megaptera novaeangliae       37
##  8 SRR6442704 Estrecho de Magallanes Megaptera novaeangliae       32
##  9 SRR6442705 Estrecho de Magallanes Megaptera novaeangliae       28
## 10 SRR6442706 Estrecho de Magallanes Megaptera novaeangliae       30
## # … with 77 more rows

dplyr::filter(data, geo_loc_name == "Chiloe") # los argumentos son, primero el objeto que contiene el data frame, y luego la columna con el criterio de filtro

## # A tibble: 28 x 30
##    sample_ID geo_loc_name species observed shannon richness_0 richness_20
##    <chr>     <chr>        <chr>      <dbl>   <dbl>      <dbl>       <dbl>
##  1 SRR64427… Chiloe       Megapt…       63   1.28          63          63
##  2 SRR64427… Chiloe       Megapt…       14   0.732         14          14
##  3 SRR64427… Chiloe       Balaen…       18   1.41          18          18
##  4 SRR64427… Chiloe       Balaen…       19   1.68          19          19
##  5 SRR64427… Chiloe       Balaen…       36   2.31          36          36
##  6 SRR64427… Chiloe       Balaen…       63   1.31          63          63
##  7 SRR64427… Chiloe       Balaen…       29   1.73          29          29
##  8 SRR64427… Chiloe       Balaen…       38   1.65          38          38
##  9 SRR64427… Chiloe       Balaen…       81   2.05          81          81
## 10 SRR64427… Chiloe       Balaen…       78   0.725         78          78
## # … with 18 more rows, and 23 more variables: richness_50 <dbl>,
## #   richness_80 <dbl>, diversities_inverse_simpson <dbl>,
## #   diversities_gini_simpson <dbl>, diversities_shannon <dbl>,
## #   diversities_fisher <dbl>, diversities_coverage <dbl>,
## #   evenness_camargo <dbl>, evenness_pielou <dbl>, evenness_simpson <dbl>,
## #   evenness_evar <dbl>, evenness_bulla <dbl>, dominance_dbp <dbl>,
## #   dominance_dmn <dbl>, dominance_absolute <dbl>,
## #   dominance_relative <dbl>, dominance_simpson <dbl>,
## #   dominance_core_abundance <dbl>, dominance_gini <dbl>,
…
## [1] 39

ncol(data_div)

## [1] 5

Es importante recordar que R lee la línea de comando desde dentro hacia fuera. En éste caso, primero se hizo el filtro y luego la selección.

Usar funciones anidadas puede ser engorroso cuando quieres hacer muchas operaciones consecutivas, en cuyo caso es convenientes usar pipes. Pipes te permiten usar varias funciones consecutivas, de forma que el output de una función será en input de la siguiente. Los pipes en R lucen así: %>%.

data %>%
  dplyr::filter(shannon > 1.5) %>% 
  dplyr::select(sample_ID, geo_loc_name, species, observed, shannon)

## # A tibble: 39 x 5
##    sample_ID  geo_loc_name           species               observed shannon
##    <chr>      <chr>                  <chr>                    <dbl>   <dbl>
##  1 SRR6442697 Estrecho de Magallanes Megaptera novaeangli…       31    2.12
##  2 SRR6442699 Estrecho de Magallanes Megaptera novaeangli…       43    2.25
##  3 SRR6442703 Estrecho de Magallanes Megaptera novaeangli…       37    1.86
##  4 SRR6442708 Estrecho de Magallanes Megaptera novaeangli…       27    1.91
##  5 SRR6442709 Estrecho de Magallanes Megaptera novaeangli…       36    1.88
##  6 SRR6442712 Estrecho de Magallanes Megaptera novaeangli…       36    1.94
##  7 SRR6442714 Estrecho de Magallanes Megaptera novaeangli…       26    1.81
##  8 SRR6442715 Estrecho de Magallanes Megaptera novaeangli…       35    1.61
##  9 SRR6442722 Chiloe                 Balaenoptera musculus       19    1.68
## 10 SRR6442723 Chiloe                 Balaenoptera musculus       36    2.31
## # … with 29 more rows
…
